%!PS-Adobe-3.0 EPSF-3.0
%%Title: plot_2.eps
%%Creator: matplotlib version 2.2.2, http://matplotlib.org/
%%CreationDate: Fri Sep 14 00:08:56 2018
%%Orientation: portrait
%%BoundingBox: 75 223 536 568
%%EndComments
%%BeginProlog
/mpldict 9 dict def
mpldict begin
/m { moveto } bind def
/l { lineto } bind def
/r { rlineto } bind def
/c { curveto } bind def
/cl { closepath } bind def
/box {
m
1 index 0 r
0 exch r
neg 0 r
cl
} bind def
/clipbox {
box
clip
newpath
} bind def
%!PS-Adobe-3.0 Resource-Font
%%Title: DejaVu Sans
%%Copyright: Copyright (c) 2003 by Bitstream, Inc. All Rights Reserved. Copyright (c) 2006 by Tavmjong Bah. All Rights Reserved. DejaVu changes are in public domain 
%%Creator: Converted from TrueType to type 3 by PPR
25 dict begin
/_d{bind def}bind def
/_m{moveto}_d
/_l{lineto}_d
/_cl{closepath eofill}_d
/_c{curveto}_d
/_sc{7 -1 roll{setcachedevice}{pop pop pop pop pop pop}ifelse}_d
/_e{exec}_d
/FontName /DejaVuSans def
/PaintType 0 def
/FontMatrix[.001 0 0 .001 0 0]def
/FontBBox[-1021 -463 1793 1232]def
/FontType 3 def
/Encoding [ /space /parenleft /parenright /period /zero /one /two /three /four /five /six /seven /eight /nine /equal /M /N /T /underscore /a /c /e /g /i /l /m /n /o /p /r /s /t /u /v /x /z /minus ] def
/FontInfo 10 dict dup begin
/FamilyName (DejaVu Sans) def
/FullName (DejaVu Sans) def
/Notice (Copyright (c) 2003 by Bitstream, Inc. All Rights Reserved. Copyright (c) 2006 by Tavmjong Bah. All Rights Reserved. DejaVu changes are in public domain ) def
/Weight (Book) def
/Version (Version 2.35) def
/ItalicAngle 0.0 def
/isFixedPitch false def
/UnderlinePosition -130 def
/UnderlineThickness 90 def
end readonly def
/CharStrings 38 dict dup begin
/.notdef 0 def
/space{318 0 0 0 0 0 _sc
}_d
/parenleft{390 0 86 -131 310 759 _sc
310 759 _m
266 683 234 609 213 536 _c
191 463 181 389 181 314 _c
181 238 191 164 213 91 _c
234 17 266 -56 310 -131 _c
232 -131 _l
183 -54 146 20 122 94 _c
98 168 86 241 86 314 _c
86 386 98 459 122 533 _c
146 607 182 682 232 759 _c
310 759 _l
_cl}_d
/parenright{390 0 80 -131 304 759 _sc
80 759 _m
158 759 _l
206 682 243 607 267 533 _c
291 459 304 386 304 314 _c
304 241 291 168 267 94 _c
243 20 206 -54 158 -131 _c
80 -131 _l
123 -56 155 17 177 91 _c
198 164 209 238 209 314 _c
209 389 198 463 177 536 _c
155 609 123 683 80 759 _c
_cl}_d
/period{318 0 107 0 210 124 _sc
107 124 _m
210 124 _l
210 0 _l
107 0 _l
107 124 _l
_cl}_d
/zero{636 0 66 -13 570 742 _sc
318 664 _m
267 664 229 639 203 589 _c
177 539 165 464 165 364 _c
165 264 177 189 203 139 _c
229 89 267 64 318 64 _c
369 64 407 89 433 139 _c
458 189 471 264 471 364 _c
471 464 458 539 433 589 _c
407 639 369 664 318 664 _c
318 742 _m
399 742 461 709 505 645 _c
548 580 570 486 570 364 _c
570 241 548 147 505 83 _c
461 19 399 -13 318 -13 _c
236 -13 173 19 130 83 _c
87 147 66 241 66 364 _c
66 486 87 580 130 645 _c
173 709 236 742 318 742 _c
_cl}_d
/one{636 0 110 0 544 729 _sc
124 83 _m
285 83 _l
285 639 _l
110 604 _l
110 694 _l
284 729 _l
383 729 _l
383 83 _l
544 83 _l
544 0 _l
124 0 _l
124 83 _l
_cl}_d
/two{{636 0 73 0 536 742 _sc
192 83 _m
536 83 _l
536 0 _l
73 0 _l
73 83 _l
110 121 161 173 226 239 _c
290 304 331 346 348 365 _c
380 400 402 430 414 455 _c
426 479 433 504 433 528 _c
433 566 419 598 392 622 _c
365 646 330 659 286 659 _c
255 659 222 653 188 643 _c
154 632 117 616 78 594 _c
78 694 _l
118 710 155 722 189 730 _c
223 738 255 742 284 742 _c
}_e{359 742 419 723 464 685 _c
509 647 532 597 532 534 _c
532 504 526 475 515 449 _c
504 422 484 390 454 354 _c
446 344 420 317 376 272 _c
332 227 271 164 192 83 _c
_cl}_e}_d
/three{{636 0 76 -13 556 742 _sc
406 393 _m
453 383 490 362 516 330 _c
542 298 556 258 556 212 _c
556 140 531 84 482 45 _c
432 6 362 -13 271 -13 _c
240 -13 208 -10 176 -4 _c
144 1 110 10 76 22 _c
76 117 _l
103 101 133 89 166 81 _c
198 73 232 69 268 69 _c
330 69 377 81 409 105 _c
441 129 458 165 458 212 _c
458 254 443 288 413 312 _c
383 336 341 349 287 349 _c
}_e{202 349 _l
202 430 _l
291 430 _l
339 430 376 439 402 459 _c
428 478 441 506 441 543 _c
441 580 427 609 401 629 _c
374 649 336 659 287 659 _c
260 659 231 656 200 650 _c
169 644 135 635 98 623 _c
98 711 _l
135 721 170 729 203 734 _c
235 739 266 742 296 742 _c
370 742 429 725 473 691 _c
517 657 539 611 539 553 _c
539 513 527 479 504 451 _c
481 423 448 403 406 393 _c
_cl}_e}_d
/four{636 0 49 0 580 729 _sc
378 643 _m
129 254 _l
378 254 _l
378 643 _l
352 729 _m
476 729 _l
476 254 _l
580 254 _l
580 172 _l
476 172 _l
476 0 _l
378 0 _l
378 172 _l
49 172 _l
49 267 _l
352 729 _l
_cl}_d
/five{{636 0 77 -13 549 729 _sc
108 729 _m
495 729 _l
495 646 _l
198 646 _l
198 467 _l
212 472 227 476 241 478 _c
255 480 270 482 284 482 _c
365 482 429 459 477 415 _c
525 370 549 310 549 234 _c
549 155 524 94 475 51 _c
426 8 357 -13 269 -13 _c
238 -13 207 -10 175 -6 _c
143 -1 111 6 77 17 _c
77 116 _l
106 100 136 88 168 80 _c
199 72 232 69 267 69 _c
}_e{323 69 368 83 401 113 _c
433 143 450 183 450 234 _c
450 284 433 324 401 354 _c
368 384 323 399 267 399 _c
241 399 214 396 188 390 _c
162 384 135 375 108 363 _c
108 729 _l
_cl}_e}_d
/six{{636 0 70 -13 573 742 _sc
330 404 _m
286 404 251 388 225 358 _c
199 328 186 286 186 234 _c
186 181 199 139 225 109 _c
251 79 286 64 330 64 _c
374 64 409 79 435 109 _c
461 139 474 181 474 234 _c
474 286 461 328 435 358 _c
409 388 374 404 330 404 _c
526 713 _m
526 623 _l
501 635 476 644 451 650 _c
425 656 400 659 376 659 _c
310 659 260 637 226 593 _c
}_e{192 549 172 482 168 394 _c
187 422 211 444 240 459 _c
269 474 301 482 336 482 _c
409 482 467 459 509 415 _c
551 371 573 310 573 234 _c
573 159 550 99 506 54 _c
462 9 403 -13 330 -13 _c
246 -13 181 19 137 83 _c
92 147 70 241 70 364 _c
70 479 97 571 152 639 _c
206 707 280 742 372 742 _c
396 742 421 739 447 735 _c
472 730 498 723 526 713 _c
_cl}_e}_d
/seven{636 0 82 0 551 729 _sc
82 729 _m
551 729 _l
551 687 _l
286 0 _l
183 0 _l
432 646 _l
82 646 _l
82 729 _l
_cl}_d
/eight{{636 0 68 -13 568 742 _sc
318 346 _m
271 346 234 333 207 308 _c
180 283 167 249 167 205 _c
167 161 180 126 207 101 _c
234 76 271 64 318 64 _c
364 64 401 76 428 102 _c
455 127 469 161 469 205 _c
469 249 455 283 429 308 _c
402 333 365 346 318 346 _c
219 388 _m
177 398 144 418 120 447 _c
96 476 85 511 85 553 _c
85 611 105 657 147 691 _c
188 725 245 742 318 742 _c
}_e{390 742 447 725 489 691 _c
530 657 551 611 551 553 _c
551 511 539 476 515 447 _c
491 418 459 398 417 388 _c
464 377 501 355 528 323 _c
554 291 568 251 568 205 _c
568 134 546 80 503 43 _c
459 5 398 -13 318 -13 _c
237 -13 175 5 132 43 _c
89 80 68 134 68 205 _c
68 251 81 291 108 323 _c
134 355 171 377 219 388 _c
183 544 _m
183 506 194 476 218 455 _c
}_e{242 434 275 424 318 424 _c
360 424 393 434 417 455 _c
441 476 453 506 453 544 _c
453 582 441 611 417 632 _c
393 653 360 664 318 664 _c
275 664 242 653 218 632 _c
194 611 183 582 183 544 _c
_cl}_e}_d
/nine{{636 0 63 -13 566 742 _sc
110 15 _m
110 105 _l
134 93 159 84 185 78 _c
210 72 235 69 260 69 _c
324 69 374 90 408 134 _c
442 178 462 244 468 334 _c
448 306 424 284 396 269 _c
367 254 335 247 300 247 _c
226 247 168 269 126 313 _c
84 357 63 417 63 494 _c
63 568 85 628 129 674 _c
173 719 232 742 306 742 _c
390 742 455 709 499 645 _c
543 580 566 486 566 364 _c
}_e{566 248 538 157 484 89 _c
429 21 356 -13 264 -13 _c
239 -13 214 -10 189 -6 _c
163 -2 137 5 110 15 _c
306 324 _m
350 324 385 339 411 369 _c
437 399 450 441 450 494 _c
450 546 437 588 411 618 _c
385 648 350 664 306 664 _c
262 664 227 648 201 618 _c
175 588 162 546 162 494 _c
162 441 175 399 201 369 _c
227 339 262 324 306 324 _c
_cl}_e}_d
/equal{838 0 106 172 732 454 _sc
106 454 _m
732 454 _l
732 372 _l
106 372 _l
106 454 _l
106 255 _m
732 255 _l
732 172 _l
106 172 _l
106 255 _l
_cl}_d
/M{863 0 98 0 765 729 _sc
98 729 _m
245 729 _l
431 233 _l
618 729 _l
765 729 _l
765 0 _l
669 0 _l
669 640 _l
481 140 _l
382 140 _l
194 640 _l
194 0 _l
98 0 _l
98 729 _l
_cl}_d
/N{748 0 98 0 650 729 _sc
98 729 _m
231 729 _l
554 119 _l
554 729 _l
650 729 _l
650 0 _l
517 0 _l
194 610 _l
194 0 _l
98 0 _l
98 729 _l
_cl}_d
/T{611 0 -2 0 614 729 _sc
-2 729 _m
614 729 _l
614 646 _l
355 646 _l
355 0 _l
256 0 _l
256 646 _l
-2 646 _l
-2 729 _l
_cl}_d
/underscore{500 0 -9 -235 510 -165 _sc
510 -165 _m
510 -235 _l
-9 -235 _l
-9 -165 _l
510 -165 _l
_cl}_d
/a{{613 0 60 -13 522 560 _sc
343 275 _m
270 275 220 266 192 250 _c
164 233 150 205 150 165 _c
150 133 160 107 181 89 _c
202 70 231 61 267 61 _c
317 61 357 78 387 114 _c
417 149 432 196 432 255 _c
432 275 _l
343 275 _l
522 312 _m
522 0 _l
432 0 _l
432 83 _l
411 49 385 25 355 10 _c
325 -5 287 -13 243 -13 _c
187 -13 142 2 109 33 _c
76 64 60 106 60 159 _c
}_e{60 220 80 266 122 298 _c
163 329 224 345 306 345 _c
432 345 _l
432 354 _l
432 395 418 427 391 450 _c
364 472 326 484 277 484 _c
245 484 215 480 185 472 _c
155 464 127 453 100 439 _c
100 522 _l
132 534 164 544 195 550 _c
226 556 256 560 286 560 _c
365 560 424 539 463 498 _c
502 457 522 395 522 312 _c
_cl}_e}_d
/c{{550 0 55 -13 488 560 _sc
488 526 _m
488 442 _l
462 456 437 466 411 473 _c
385 480 360 484 334 484 _c
276 484 230 465 198 428 _c
166 391 150 339 150 273 _c
150 206 166 154 198 117 _c
230 80 276 62 334 62 _c
360 62 385 65 411 72 _c
437 79 462 90 488 104 _c
488 21 _l
462 9 436 0 410 -5 _c
383 -10 354 -13 324 -13 _c
242 -13 176 12 128 64 _c
}_e{79 115 55 185 55 273 _c
55 362 79 432 128 483 _c
177 534 244 560 330 560 _c
358 560 385 557 411 551 _c
437 545 463 537 488 526 _c
_cl}_e}_d
/e{{615 0 55 -13 562 560 _sc
562 296 _m
562 252 _l
149 252 _l
153 190 171 142 205 110 _c
238 78 284 62 344 62 _c
378 62 412 66 444 74 _c
476 82 509 95 541 113 _c
541 28 _l
509 14 476 3 442 -3 _c
408 -9 373 -13 339 -13 _c
251 -13 182 12 131 62 _c
80 112 55 181 55 268 _c
55 357 79 428 127 481 _c
175 533 241 560 323 560 _c
397 560 455 536 498 489 _c
}_e{540 441 562 377 562 296 _c
472 322 _m
471 371 457 410 431 440 _c
404 469 368 484 324 484 _c
274 484 234 469 204 441 _c
174 413 156 373 152 322 _c
472 322 _l
_cl}_e}_d
/g{{635 0 55 -207 544 560 _sc
454 280 _m
454 344 440 395 414 431 _c
387 467 349 485 301 485 _c
253 485 215 467 188 431 _c
161 395 148 344 148 280 _c
148 215 161 165 188 129 _c
215 93 253 75 301 75 _c
349 75 387 93 414 129 _c
440 165 454 215 454 280 _c
544 68 _m
544 -24 523 -93 482 -139 _c
440 -184 377 -207 292 -207 _c
260 -207 231 -204 203 -200 _c
175 -195 147 -188 121 -178 _c
}_e{121 -91 _l
147 -105 173 -115 199 -122 _c
225 -129 251 -133 278 -133 _c
336 -133 380 -117 410 -87 _c
439 -56 454 -10 454 52 _c
454 96 _l
435 64 411 40 382 24 _c
353 8 319 0 279 0 _c
211 0 157 25 116 76 _c
75 127 55 195 55 280 _c
55 364 75 432 116 483 _c
157 534 211 560 279 560 _c
319 560 353 552 382 536 _c
411 520 435 496 454 464 _c
454 547 _l
544 547 _l
}_e{544 68 _l
_cl}_e}_d
/i{278 0 94 0 184 760 _sc
94 547 _m
184 547 _l
184 0 _l
94 0 _l
94 547 _l
94 760 _m
184 760 _l
184 646 _l
94 646 _l
94 760 _l
_cl}_d
/l{278 0 94 0 184 760 _sc
94 760 _m
184 760 _l
184 0 _l
94 0 _l
94 760 _l
_cl}_d
/m{{974 0 91 0 889 560 _sc
520 442 _m
542 482 569 511 600 531 _c
631 550 668 560 711 560 _c
767 560 811 540 842 500 _c
873 460 889 403 889 330 _c
889 0 _l
799 0 _l
799 327 _l
799 379 789 418 771 444 _c
752 469 724 482 686 482 _c
639 482 602 466 575 435 _c
548 404 535 362 535 309 _c
535 0 _l
445 0 _l
445 327 _l
445 379 435 418 417 444 _c
398 469 369 482 331 482 _c
}_e{285 482 248 466 221 435 _c
194 404 181 362 181 309 _c
181 0 _l
91 0 _l
91 547 _l
181 547 _l
181 462 _l
201 495 226 520 255 536 _c
283 552 317 560 357 560 _c
397 560 430 550 458 530 _c
486 510 506 480 520 442 _c
_cl}_e}_d
/n{634 0 91 0 549 560 _sc
549 330 _m
549 0 _l
459 0 _l
459 327 _l
459 379 448 417 428 443 _c
408 469 378 482 338 482 _c
289 482 251 466 223 435 _c
195 404 181 362 181 309 _c
181 0 _l
91 0 _l
91 547 _l
181 547 _l
181 462 _l
202 494 227 519 257 535 _c
286 551 320 560 358 560 _c
420 560 468 540 500 501 _c
532 462 549 405 549 330 _c
_cl}_d
/o{612 0 55 -13 557 560 _sc
306 484 _m
258 484 220 465 192 427 _c
164 389 150 338 150 273 _c
150 207 163 156 191 118 _c
219 80 257 62 306 62 _c
354 62 392 80 420 118 _c
448 156 462 207 462 273 _c
462 337 448 389 420 427 _c
392 465 354 484 306 484 _c
306 560 _m
384 560 445 534 490 484 _c
534 433 557 363 557 273 _c
557 183 534 113 490 63 _c
445 12 384 -13 306 -13 _c
227 -13 165 12 121 63 _c
77 113 55 183 55 273 _c
55 363 77 433 121 484 _c
165 534 227 560 306 560 _c
_cl}_d
/p{{635 0 91 -207 580 560 _sc
181 82 _m
181 -207 _l
91 -207 _l
91 547 _l
181 547 _l
181 464 _l
199 496 223 520 252 536 _c
281 552 316 560 356 560 _c
422 560 476 533 518 481 _c
559 428 580 359 580 273 _c
580 187 559 117 518 65 _c
476 13 422 -13 356 -13 _c
316 -13 281 -5 252 10 _c
223 25 199 49 181 82 _c
487 273 _m
487 339 473 390 446 428 _c
418 466 381 485 334 485 _c
}_e{286 485 249 466 222 428 _c
194 390 181 339 181 273 _c
181 207 194 155 222 117 _c
249 79 286 61 334 61 _c
381 61 418 79 446 117 _c
473 155 487 207 487 273 _c
_cl}_e}_d
/r{411 0 91 0 411 560 _sc
411 463 _m
401 469 390 473 378 476 _c
366 478 353 480 339 480 _c
288 480 249 463 222 430 _c
194 397 181 350 181 288 _c
181 0 _l
91 0 _l
91 547 _l
181 547 _l
181 462 _l
199 495 224 520 254 536 _c
284 552 321 560 365 560 _c
371 560 378 559 386 559 _c
393 558 401 557 411 555 _c
411 463 _l
_cl}_d
/s{{521 0 54 -13 472 560 _sc
443 531 _m
443 446 _l
417 458 391 468 364 475 _c
336 481 308 485 279 485 _c
234 485 200 478 178 464 _c
156 450 145 430 145 403 _c
145 382 153 366 169 354 _c
185 342 217 330 265 320 _c
296 313 _l
360 299 405 279 432 255 _c
458 230 472 195 472 151 _c
472 100 452 60 412 31 _c
372 1 316 -13 246 -13 _c
216 -13 186 -10 154 -5 _c
}_e{122 0 89 8 54 20 _c
54 113 _l
87 95 120 82 152 74 _c
184 65 216 61 248 61 _c
290 61 323 68 346 82 _c
368 96 380 117 380 144 _c
380 168 371 187 355 200 _c
339 213 303 226 247 238 _c
216 245 _l
160 257 119 275 95 299 _c
70 323 58 356 58 399 _c
58 450 76 490 112 518 _c
148 546 200 560 268 560 _c
301 560 332 557 362 552 _c
391 547 418 540 443 531 _c
}_e{_cl}_e}_d
/t{392 0 27 0 368 702 _sc
183 702 _m
183 547 _l
368 547 _l
368 477 _l
183 477 _l
183 180 _l
183 135 189 106 201 94 _c
213 81 238 75 276 75 _c
368 75 _l
368 0 _l
276 0 _l
206 0 158 13 132 39 _c
106 65 93 112 93 180 _c
93 477 _l
27 477 _l
27 547 _l
93 547 _l
93 702 _l
183 702 _l
_cl}_d
/u{634 0 85 -13 543 560 _sc
85 216 _m
85 547 _l
175 547 _l
175 219 _l
175 167 185 129 205 103 _c
225 77 255 64 296 64 _c
344 64 383 79 411 110 _c
439 141 453 183 453 237 _c
453 547 _l
543 547 _l
543 0 _l
453 0 _l
453 84 _l
431 50 405 26 377 10 _c
348 -5 315 -13 277 -13 _c
214 -13 166 6 134 45 _c
101 83 85 140 85 216 _c
311 560 _m
311 560 _l
_cl}_d
/v{592 0 30 0 562 547 _sc
30 547 _m
125 547 _l
296 88 _l
467 547 _l
562 547 _l
357 0 _l
235 0 _l
30 547 _l
_cl}_d
/x{592 0 29 0 559 547 _sc
549 547 _m
351 281 _l
559 0 _l
453 0 _l
294 215 _l
135 0 _l
29 0 _l
241 286 _l
47 547 _l
153 547 _l
298 352 _l
443 547 _l
549 547 _l
_cl}_d
/z{525 0 43 0 482 547 _sc
55 547 _m
482 547 _l
482 465 _l
144 72 _l
482 72 _l
482 0 _l
43 0 _l
43 82 _l
381 475 _l
55 475 _l
55 547 _l
_cl}_d
/minus{838 0 106 272 732 355 _sc
106 355 _m
732 355 _l
732 272 _l
106 272 _l
106 355 _l
_cl}_d
end readonly def

/BuildGlyph
 {exch begin
 CharStrings exch
 2 copy known not{pop /.notdef}if
 true 3 1 roll get exec
 end}_d

/BuildChar {
 1 index /Encoding get exch get
 1 index /BuildGlyph get exec
}_d

FontName currentdict end definefont pop
%!PS-Adobe-3.0 Resource-Font
%%Title: DejaVu Sans Oblique
%%Copyright: Copyright (c) 2003 by Bitstream, Inc. All Rights Reserved. Copyright (c) 2006 by Tavmjong Bah. All Rights Reserved. DejaVu changes are in public domain 
%%Creator: Converted from TrueType to type 3 by PPR
25 dict begin
/_d{bind def}bind def
/_m{moveto}_d
/_l{lineto}_d
/_cl{closepath eofill}_d
/_c{curveto}_d
/_sc{7 -1 roll{setcachedevice}{pop pop pop pop pop pop}ifelse}_d
/_e{exec}_d
/FontName /DejaVuSans-Oblique def
/PaintType 0 def
/FontMatrix[.001 0 0 .001 0 0]def
/FontBBox[-1016 -350 1659 1068]def
/FontType 3 def
/Encoding [ /g /t /alpha ] def
/FontInfo 10 dict dup begin
/FamilyName (DejaVu Sans) def
/FullName (DejaVu Sans Oblique) def
/Notice (Copyright (c) 2003 by Bitstream, Inc. All Rights Reserved. Copyright (c) 2006 by Tavmjong Bah. All Rights Reserved. DejaVu changes are in public domain ) def
/Weight (Oblique) def
/Version (Version 2.35) def
/ItalicAngle -11.0 def
/isFixedPitch false def
/UnderlinePosition -130 def
/UnderlineThickness 90 def
end readonly def
/CharStrings 4 dict dup begin
/.notdef 0 def
/g{{635 0 32 -207 596 560 _sc
596 547 _m
503 68 _l
485 -24 450 -92 400 -138 _c
349 -184 281 -207 196 -207 _c
164 -207 134 -204 107 -200 _c
80 -195 55 -188 32 -178 _c
49 -91 _l
71 -105 94 -115 119 -122 _c
143 -129 170 -133 198 -133 _c
255 -133 302 -117 339 -86 _c
375 -55 399 -11 411 47 _c
419 88 _l
393 59 364 37 331 22 _c
298 7 262 0 224 0 _c
168 0 125 18 93 55 _c
}_e{61 91 46 142 46 206 _c
46 256 55 306 75 354 _c
94 402 121 445 156 483 _c
178 507 205 526 236 540 _c
267 553 299 560 333 560 _c
369 560 401 551 429 534 _c
456 517 476 493 490 462 _c
506 547 _l
596 547 _l
461 346 _m
461 390 450 425 429 449 _c
408 473 379 485 341 485 _c
317 485 294 480 273 471 _c
251 461 233 448 218 431 _c
193 403 174 370 160 332 _c
}_e{146 294 139 255 139 215 _c
139 169 149 135 170 111 _c
191 87 221 75 261 75 _c
318 75 366 100 404 152 _c
442 204 461 268 461 346 _c
_cl}_e}_d
/t{{392 0 64 0 423 702 _sc
423 547 _m
409 477 _l
230 477 _l
172 180 _l
170 169 168 160 167 152 _c
166 144 166 139 166 135 _c
166 114 172 99 185 89 _c
197 79 217 75 245 75 _c
336 75 _l
321 0 _l
235 0 _l
181 0 141 10 115 31 _c
89 52 76 84 76 126 _c
76 133 76 141 77 150 _c
78 159 80 169 82 180 _c
140 477 _l
64 477 _l
78 547 _l
153 547 _l
183 702 _l
}_e{273 702 _l
243 547 _l
423 547 _l
_cl}_e}_d
/alpha{{659 0 55 -11 645 559 _sc
409 254 _m
410 367 _l
410 443 381 482 323 483 _c
279 483 244 465 218 429 _c
184 384 161 332 150 273 _c
136 201 137 148 155 114 _c
173 79 202 62 242 62 _c
285 62 325 96 362 166 _c
409 254 _l
338 559 _m
440 561 490 509 489 404 _c
489 404 514 451 565 547 _c
645 547 _l
487 250 _l
486 144 _l
486 128 490 113 499 100 _c
509 84 519 76 530 76 _c
}_e{573 76 _l
559 0 _l
504 0 _l
473 0 447 13 425 41 _c
415 55 409 76 409 104 _c
387 69 359 37 323 8 _c
305 -5 273 -11 227 -11 _c
151 -10 99 14 71 62 _c
43 112 37 183 55 273 _c
73 369 108 440 158 484 _c
213 533 273 558 338 559 _c
_cl}_e}_d
end readonly def

/BuildGlyph
 {exch begin
 CharStrings exch
 2 copy known not{pop /.notdef}if
 true 3 1 roll get exec
 end}_d

/BuildChar {
 1 index /Encoding get exch get
 1 index /BuildGlyph get exec
}_d

FontName currentdict end definefont pop
end
%%EndProlog
mpldict begin
75.6 223.2 translate
460.8 345.6 0 0 clipbox
gsave
0 0 m
460.8 0 l
460.8 345.6 l
0 345.6 l
cl
1.000 setgray
fill
grestore
gsave
57.6 38.016 m
414.72 38.016 l
414.72 304.128 l
57.6 304.128 l
cl
1.000 setgray
fill
grestore
0.800 setlinewidth
1 setlinejoin
0 setlinecap
[] 0 setdash
0.000 setgray
gsave
/o {
gsave
newpath
translate
0.8 setlinewidth
1 setlinejoin
0 setlinecap
0 0 m
0 -3.5 l

gsave
0.000 setgray
fill
grestore
stroke
grestore
} bind def
116.567 38.016 o
grestore
/DejaVuSans findfont
10.000 scalefont
setfont
gsave
113.387158 23.422250 translate
0.000000 rotate
0.000000 0.000000 m /three glyphshow
grestore
gsave
/o {
gsave
newpath
translate
0.8 setlinewidth
1 setlinejoin
0 setlinecap
0 0 m
0 -3.5 l

gsave
0.000 setgray
fill
grestore
stroke
grestore
} bind def
177.842 38.016 o
grestore
gsave
174.662186 23.422250 translate
0.000000 rotate
0.000000 0.000000 m /four glyphshow
grestore
gsave
/o {
gsave
newpath
translate
0.8 setlinewidth
1 setlinejoin
0 setlinecap
0 0 m
0 -3.5 l

gsave
0.000 setgray
fill
grestore
stroke
grestore
} bind def
239.117 38.016 o
grestore
gsave
235.937214 23.422250 translate
0.000000 rotate
0.000000 0.000000 m /five glyphshow
grestore
gsave
/o {
gsave
newpath
translate
0.8 setlinewidth
1 setlinejoin
0 setlinecap
0 0 m
0 -3.5 l

gsave
0.000 setgray
fill
grestore
stroke
grestore
} bind def
300.392 38.016 o
grestore
gsave
297.212242 23.422250 translate
0.000000 rotate
0.000000 0.000000 m /six glyphshow
grestore
gsave
/o {
gsave
newpath
translate
0.8 setlinewidth
1 setlinejoin
0 setlinecap
0 0 m
0 -3.5 l

gsave
0.000 setgray
fill
grestore
stroke
grestore
} bind def
361.667 38.016 o
grestore
gsave
358.487270 23.422250 translate
0.000000 rotate
0.000000 0.000000 m /seven glyphshow
grestore
gsave
196.120937 9.750375 translate
0.000000 rotate
0.000000 0.000000 m /l glyphshow
2.778320 0.000000 m /o glyphshow
8.896484 0.000000 m /g glyphshow
15.244141 0.000000 m /parenleft glyphshow
19.145508 0.000000 m /m glyphshow
28.886719 0.000000 m /a glyphshow
35.014648 0.000000 m /t glyphshow
38.935547 0.000000 m /r glyphshow
43.046875 0.000000 m /i glyphshow
45.825195 0.000000 m /x glyphshow
51.743164 0.000000 m /underscore glyphshow
56.743164 0.000000 m /s glyphshow
61.953125 0.000000 m /i glyphshow
64.731445 0.000000 m /z glyphshow
69.980469 0.000000 m /e glyphshow
76.132812 0.000000 m /parenright glyphshow
grestore
gsave
/o {
gsave
newpath
translate
0.8 setlinewidth
1 setlinejoin
0 setlinecap
0 0 m
-3.5 0 l

gsave
0.000 setgray
fill
grestore
stroke
grestore
} bind def
57.6 59.7686 o
grestore
gsave
29.506250 55.971718 translate
0.000000 rotate
0.000000 0.000000 m /minus glyphshow
8.378906 0.000000 m /one glyphshow
14.741211 0.000000 m /six glyphshow
grestore
gsave
/o {
gsave
newpath
translate
0.8 setlinewidth
1 setlinejoin
0 setlinecap
0 0 m
-3.5 0 l

gsave
0.000 setgray
fill
grestore
stroke
grestore
} bind def
57.6 110.483 o
grestore
gsave
29.506250 106.686213 translate
0.000000 rotate
0.000000 0.000000 m /minus glyphshow
8.378906 0.000000 m /one glyphshow
14.741211 0.000000 m /four glyphshow
grestore
gsave
/o {
gsave
newpath
translate
0.8 setlinewidth
1 setlinejoin
0 setlinecap
0 0 m
-3.5 0 l

gsave
0.000 setgray
fill
grestore
stroke
grestore
} bind def
57.6 161.198 o
grestore
gsave
29.506250 157.400708 translate
0.000000 rotate
0.000000 0.000000 m /minus glyphshow
8.378906 0.000000 m /one glyphshow
14.741211 0.000000 m /two glyphshow
grestore
gsave
/o {
gsave
newpath
translate
0.8 setlinewidth
1 setlinejoin
0 setlinecap
0 0 m
-3.5 0 l

gsave
0.000 setgray
fill
grestore
stroke
grestore
} bind def
57.6 211.912 o
grestore
gsave
29.506250 208.115202 translate
0.000000 rotate
0.000000 0.000000 m /minus glyphshow
8.378906 0.000000 m /one glyphshow
14.741211 0.000000 m /zero glyphshow
grestore
gsave
/o {
gsave
newpath
translate
0.8 setlinewidth
1 setlinejoin
0 setlinecap
0 0 m
-3.5 0 l

gsave
0.000 setgray
fill
grestore
stroke
grestore
} bind def
57.6 262.627 o
grestore
gsave
35.865625 258.829697 translate
0.000000 rotate
0.000000 0.000000 m /minus glyphshow
8.378906 0.000000 m /eight glyphshow
grestore
gsave
23.146875 136.540750 translate
90.000000 rotate
0.000000 0.000000 m /l glyphshow
2.778320 0.000000 m /o glyphshow
8.896484 0.000000 m /g glyphshow
15.244141 0.000000 m /parenleft glyphshow
19.145508 0.000000 m /a glyphshow
25.273438 0.000000 m /v glyphshow
31.191406 0.000000 m /g glyphshow
37.539062 0.000000 m /underscore glyphshow
42.539062 0.000000 m /t glyphshow
46.459961 0.000000 m /i glyphshow
49.238281 0.000000 m /m glyphshow
58.979492 0.000000 m /e glyphshow
65.131836 0.000000 m /parenright glyphshow
grestore
1.500 setlinewidth
0.122 0.467 0.706 setrgbcolor
gsave
357.1 266.1 57.6 38.02 clipbox
73.832727 135.258298 m
73.832727 153.818824 l
stroke
grestore
gsave
357.1 266.1 57.6 38.02 clipbox
201.250566 142.364042 m
201.250566 153.056199 l
stroke
grestore
gsave
357.1 266.1 57.6 38.02 clipbox
239.768579 158.08414 m
239.768579 159.998794 l
stroke
grestore
gsave
357.1 266.1 57.6 38.02 clipbox
263.23644 170.557774 m
263.23644 171.970787 l
stroke
grestore
gsave
357.1 266.1 57.6 38.02 clipbox
280.163874 181.192346 m
280.163874 183.389797 l
stroke
grestore
gsave
357.1 266.1 57.6 38.02 clipbox
293.412951 191.349814 m
293.412951 193.373847 l
stroke
grestore
gsave
357.1 266.1 57.6 38.02 clipbox
304.30037 198.731256 m
304.30037 199.212079 l
stroke
grestore
gsave
357.1 266.1 57.6 38.02 clipbox
313.542047 205.510739 m
313.542047 207.44528 l
stroke
grestore
gsave
357.1 266.1 57.6 38.02 clipbox
321.570807 211.643153 m
321.570807 212.504593 l
stroke
grestore
gsave
357.1 266.1 57.6 38.02 clipbox
328.668405 218.575087 m
328.668405 220.158339 l
stroke
grestore
gsave
357.1 266.1 57.6 38.02 clipbox
335.028556 220.140407 m
335.028556 224.697161 l
stroke
grestore
gsave
357.1 266.1 57.6 38.02 clipbox
340.790183 226.171805 m
340.790183 227.690769 l
stroke
grestore
gsave
357.1 266.1 57.6 38.02 clipbox
346.056308 232.06505 m
346.056308 233.206259 l
stroke
grestore
gsave
357.1 266.1 57.6 38.02 clipbox
350.905449 234.772751 m
350.905449 238.874534 l
stroke
grestore
gsave
357.1 266.1 57.6 38.02 clipbox
355.398825 238.926756 m
355.398825 243.726995 l
stroke
grestore
gsave
357.1 266.1 57.6 38.02 clipbox
359.585089 244.748963 m
359.585089 247.345013 l
stroke
grestore
gsave
357.1 266.1 57.6 38.02 clipbox
363.503549 249.660472 m
363.503549 253.427501 l
stroke
grestore
gsave
357.1 266.1 57.6 38.02 clipbox
367.186418 255.234779 m
367.186418 259.60928 l
stroke
grestore
gsave
357.1 266.1 57.6 38.02 clipbox
370.660427 261.296606 m
370.660427 263.456235 l
stroke
grestore
gsave
357.1 266.1 57.6 38.02 clipbox
373.947999 266.1533 m
373.947999 268.33211 l
stroke
grestore
gsave
357.1 266.1 57.6 38.02 clipbox
377.068129 270.881447 m
377.068129 272.680673 l
stroke
grestore
gsave
357.1 266.1 57.6 38.02 clipbox
380.03705 274.418375 m
380.03705 276.610377 l
stroke
grestore
gsave
357.1 266.1 57.6 38.02 clipbox
382.868743 278.095275 m
382.868743 278.918972 l
stroke
grestore
gsave
357.1 266.1 57.6 38.02 clipbox
385.575336 280.747703 m
385.575336 281.67228 l
stroke
grestore
gsave
357.1 266.1 57.6 38.02 clipbox
388.167415 283.042684 m
388.167415 284.106911 l
stroke
grestore
gsave
357.1 266.1 57.6 38.02 clipbox
390.654279 285.394122 m
390.654279 286.09587 l
stroke
grestore
gsave
357.1 266.1 57.6 38.02 clipbox
393.044138 287.261856 m
393.044138 288.104617 l
stroke
grestore
gsave
357.1 266.1 57.6 38.02 clipbox
395.344275 289.140657 m
395.344275 290.026613 l
stroke
grestore
gsave
357.1 266.1 57.6 38.02 clipbox
397.561184 290.593758 m
397.561184 291.759691 l
stroke
grestore
2 setlinecap
1.000 0.498 0.055 setrgbcolor
gsave
357.1 266.1 57.6 38.02 clipbox
73.832727 144.538561 m
116.30534 136.963823 l
141.150226 135.325598 l
158.777953 142.749745 l
172.451081 145.851551 l
183.622839 151.527873 l
193.068426 151.571059 l
201.250566 147.71012 l
208.467725 149.644266 l
214.923694 152.15401 l
220.763827 152.15401 l
226.095452 153.628367 l
235.541039 156.873052 l
239.768579 159.041467 l
243.723179 161.548682 l
247.437955 162.853705 l
260.385925 169.219177 l
265.960223 173.132111 l
268.568065 174.565781 l
271.069434 175.695985 l
273.472684 177.9278 l
275.785224 179.586564 l
278.013652 180.727821 l
284.25039 185.200998 l
286.195792 191.294649 l
288.081326 187.540973 l
289.910567 188.893454 l
291.68678 191.459258 l
293.412951 192.36183 l
295.091824 192.548271 l
296.725921 193.941067 l
298.31757 194.85755 l
305.709053 200.093344 l
307.086078 201.14511 l
309.75063 202.823081 l
312.304125 204.91804 l
313.542047 206.478009 l
314.755453 206.81563 l
315.945297 209.056437 l
317.112476 208.527843 l
318.257837 209.17242 l
321.570807 212.073873 l
322.636487 212.495093 l
323.683949 213.909818 l
324.713805 214.298208 l
326.723003 215.890677 l
327.703424 216.35536 l
328.668405 219.366713 l
329.618424 218.99682 l
330.553939 218.466648 l
331.475386 219.35778 l
332.38318 219.932019 l
333.277722 221.275927 l
335.028556 222.418784 l
335.885564 222.841124 l
336.73075 223.974167 l
337.564437 225.810272 l
338.386933 225.560414 l
339.198534 227.284528 l
339.999527 226.577537 l
340.790183 226.931287 l
341.570767 227.46473 l
342.341532 228.588925 l
343.102723 228.625462 l
344.59731 231.996635 l
345.331151 232.479326 l
346.056308 232.635654 l
346.772983 234.16362 l
347.481373 234.22556 l
348.181666 234.984093 l
348.874047 236.207463 l
349.558691 234.684808 l
350.905449 236.823642 l
351.567889 237.200735 l
352.223243 237.393049 l
353.513291 240.628564 l
354.148271 239.800323 l
354.776738 240.40228 l
355.398825 241.326875 l
356.01466 241.272549 l
356.624367 242.629494 l
357.228066 243.265436 l
357.825876 244.704566 l
358.41791 244.264873 l
359.004278 245.501951 l
360.160445 246.7166 l
360.73045 247.917274 l
361.295201 248.340248 l
361.854794 250.728313 l
362.409323 249.789435 l
362.958878 250.193133 l
363.503549 251.543986 l
364.04342 255.220146 l
364.578577 253.45212 l
365.1091 254.892456 l
365.635069 254.400695 l
366.156562 255.522916 l
366.673654 255.774223 l
367.186418 257.42203 l
367.694928 257.829429 l
368.199252 258.385306 l
368.699459 259.533959 l
369.195616 259.76036 l
369.687787 260.506961 l
371.141018 263.460415 l
372.091037 264.486067 l
373.026552 266.268039 l
373.489007 266.479929 l
374.403577 268.083675 l
374.855793 268.449561 l
375.304697 269.219422 l
375.750335 270.290492 l
376.192756 270.578977 l
377.068129 271.78106 l
377.501169 272.146563 l
379.621624 274.810328 l
380.03705 275.514376 l
380.449678 275.731241 l
382.072952 277.742914 l
382.868743 278.507124 l
385.952414 281.584273 l
386.69968 282.244598 l
387.437942 283.030419 l
388.528921 283.869309 l
391.001448 286.046627 l
393.378062 287.90992 l
394.369055 288.797497 l
395.020923 289.227218 l
395.344275 289.583635 l
395.985904 289.979396 l
398.487273 292.032 l
398.487273 292.032 l
stroke
grestore
0.173 0.627 0.173 setrgbcolor
gsave
357.1 266.1 57.6 38.02 clipbox
73.832727 50.112 m
398.487273 279.031327 l
398.487273 279.031327 l
stroke
grestore
1.000 setlinewidth
0 setlinecap
0.122 0.467 0.706 setrgbcolor
gsave
357.1 266.1 57.6 38.02 clipbox
/o {
gsave
newpath
translate
1.0 setlinewidth
1 setlinejoin
0 setlinecap
0 -1.5 m
0.397805 -1.5 0.77937 -1.341951 1.06066 -1.06066 c
1.341951 -0.77937 1.5 -0.397805 1.5 0 c
1.5 0.397805 1.341951 0.77937 1.06066 1.06066 c
0.77937 1.341951 0.397805 1.5 0 1.5 c
-0.397805 1.5 -0.77937 1.341951 -1.06066 1.06066 c
-1.341951 0.77937 -1.5 0.397805 -1.5 0 c
-1.5 -0.397805 -1.341951 -0.77937 -1.06066 -1.06066 c
-0.77937 -1.341951 -0.397805 -1.5 0 -1.5 c
cl

gsave
0.122 0.467 0.706 setrgbcolor
fill
grestore
stroke
grestore
} bind def
73.8327 144.539 o
201.251 147.71 o
239.769 159.041 o
263.236 171.264 o
280.164 182.291 o
293.413 192.362 o
304.3 198.972 o
313.542 206.478 o
321.571 212.074 o
328.668 219.367 o
335.029 222.419 o
340.79 226.931 o
346.056 232.636 o
350.905 236.824 o
355.399 241.327 o
359.585 246.047 o
363.504 251.544 o
367.186 257.422 o
370.66 262.376 o
373.948 267.243 o
377.068 271.781 o
380.037 275.514 o
382.869 278.507 o
385.575 281.21 o
388.167 283.575 o
390.654 285.745 o
393.044 287.683 o
395.344 289.584 o
397.561 291.177 o
grestore
0.800 setlinewidth
0 setlinejoin
2 setlinecap
[] 0 setdash
0.000 setgray
gsave
57.6 38.016 m
57.6 304.128 l
stroke
grestore
gsave
414.72 38.016 m
414.72 304.128 l
stroke
grestore
gsave
57.6 38.016 m
414.72 38.016 l
stroke
grestore
gsave
57.6 304.128 m
414.72 304.128 l
stroke
grestore
/DejaVuSans findfont
12.000 scalefont
setfont
gsave
160.581875 310.128000 translate
0.000000 rotate
0.000000 0.000000 m /M glyphshow
10.353516 0.000000 m /a glyphshow
17.707031 0.000000 m /t glyphshow
22.412109 0.000000 m /r glyphshow
27.345703 0.000000 m /i glyphshow
30.679688 0.000000 m /x glyphshow
37.781250 0.000000 m /space glyphshow
41.595703 0.000000 m /m glyphshow
53.285156 0.000000 m /u glyphshow
60.890625 0.000000 m /l glyphshow
64.224609 0.000000 m /t glyphshow
68.929688 0.000000 m /i glyphshow
72.263672 0.000000 m /p glyphshow
79.880859 0.000000 m /l glyphshow
83.214844 0.000000 m /i glyphshow
86.548828 0.000000 m /c glyphshow
93.146484 0.000000 m /a glyphshow
100.500000 0.000000 m /t glyphshow
105.205078 0.000000 m /i glyphshow
108.539062 0.000000 m /o glyphshow
115.880859 0.000000 m /n glyphshow
123.486328 0.000000 m /parenleft glyphshow
128.167969 0.000000 m /l glyphshow
131.501953 0.000000 m /o glyphshow
138.843750 0.000000 m /g glyphshow
146.460938 0.000000 m /parenright glyphshow
grestore
1.000 setlinewidth
0 setlinecap
0.300 setgray
gsave
65.431 257.844 m
211.087 257.844 l
212.197667 257.844 212.753 258.399333 212.753 259.51 c
212.753 296.297 l
212.753 297.407667 212.197667 297.963 211.087 297.963 c
65.431 297.963 l
64.320333 297.963 63.765 297.407667 63.765 296.297 c
63.765 259.51 l
63.765 258.399333 64.320333 257.844 65.431 257.844 c
cl
gsave
fill
grestore
stroke
grestore
0.800 setgray
gsave
63.431 259.844 m
209.087 259.844 l
210.197667 259.844 210.753 260.399333 210.753 261.51 c
210.753 298.297 l
210.753 299.407667 210.197667 299.963 209.087 299.963 c
63.431 299.963 l
62.320333 299.963 61.765 299.407667 61.765 298.297 c
61.765 261.51 l
61.765 260.399333 62.320333 259.844 63.431 259.844 c
cl
gsave
1.000 setgray
fill
grestore
stroke
grestore
1.500 setlinewidth
1 setlinejoin
2 setlinecap
[] 0 setdash
1.000 0.498 0.055 setrgbcolor
gsave
65.097 293.218375 m
81.757 293.218375 l
stroke
grestore
0.000 setgray
/DejaVuSans findfont
8.330 scalefont
setfont
gsave
88.421000 290.302875 translate
0.000000 rotate
0.000000 0.000000 m /T glyphshow
5.087143 0.000000 m /parenleft glyphshow
8.336243 0.000000 m /N glyphshow
14.566071 0.000000 m /parenright glyphshow
grestore
0.173 0.627 0.173 setrgbcolor
gsave
65.097 280.319 m
81.757 280.319 l
stroke
grestore
0.000 setgray
gsave
88.421000 277.403500 translate
0.000000 rotate
/DejaVuSans-Oblique findfont
8.33 scalefont
setfont
0.000000 0.687500 moveto
/t glyphshow

3.265366 0.687500 moveto
/g glyphshow

/DejaVuSans findfont
8.33 scalefont
setfont
8.551773 0.687500 moveto
/parenleft glyphshow

/DejaVuSans-Oblique findfont
8.33 scalefont
setfont
11.800873 0.687500 moveto
/alpha glyphshow

/DejaVuSans findfont
8.33 scalefont
setfont
17.290604 0.687500 moveto
/parenright glyphshow

22.162222 0.687500 moveto
/equal glyphshow

30.762799 0.687500 moveto
/one glyphshow

36.061398 0.687500 moveto
/period glyphshow

38.708661 0.687500 moveto
/seven glyphshow

44.007260 0.687500 moveto
/zero glyphshow

49.305859 0.687500 moveto
/three glyphshow

54.604459 0.687500 moveto
/eight glyphshow

59.903058 0.687500 moveto
/nine glyphshow

65.201657 0.687500 moveto
/three glyphshow

70.500256 0.687500 moveto
/two glyphshow

75.798856 0.687500 moveto
/six glyphshow

81.097455 0.687500 moveto
/three glyphshow

86.396054 0.687500 moveto
/eight glyphshow

91.694653 0.687500 moveto
/eight glyphshow

96.993253 0.687500 moveto
/nine glyphshow

102.291852 0.687500 moveto
/six glyphshow

107.590451 0.687500 moveto
/three glyphshow

112.889050 0.687500 moveto
/four glyphshow


grestore
0 setlinecap
0.122 0.467 0.706 setrgbcolor
gsave
73.427 263.660875 m
73.427 271.990875 l
stroke
grestore
1.000 setlinewidth
gsave
/o {
gsave
newpath
translate
1.0 setlinewidth
1 setlinejoin
0 setlinecap
0 -1.5 m
0.397805 -1.5 0.77937 -1.341951 1.06066 -1.06066 c
1.341951 -0.77937 1.5 -0.397805 1.5 0 c
1.5 0.397805 1.341951 0.77937 1.06066 1.06066 c
0.77937 1.341951 0.397805 1.5 0 1.5 c
-0.397805 1.5 -0.77937 1.341951 -1.06066 1.06066 c
-1.341951 0.77937 -1.5 0.397805 -1.5 0 c
-1.5 -0.397805 -1.341951 -0.77937 -1.06066 -1.06066 c
-0.77937 -1.341951 -0.397805 -1.5 0 -1.5 c
cl

gsave
0.122 0.467 0.706 setrgbcolor
fill
grestore
stroke
grestore
} bind def
73.427 267.826 o
grestore
0.000 setgray
gsave
88.421000 264.910375 translate
0.000000 rotate
0.000000 0.000000 m /m glyphshow
8.112595 0.000000 m /e glyphshow
13.236343 0.000000 m /a glyphshow
18.339752 0.000000 m /n glyphshow
grestore

end
showpage
