%!PS-Adobe-3.0 EPSF-3.0
%%Title: plot_3.eps
%%Creator: matplotlib version 2.2.2, http://matplotlib.org/
%%CreationDate: Fri Sep 14 00:09:04 2018
%%Orientation: portrait
%%BoundingBox: 75 223 536 568
%%EndComments
%%BeginProlog
/mpldict 8 dict def
mpldict begin
/m { moveto } bind def
/l { lineto } bind def
/r { rlineto } bind def
/c { curveto } bind def
/cl { closepath } bind def
/box {
m
1 index 0 r
0 exch r
neg 0 r
cl
} bind def
/clipbox {
box
clip
newpath
} bind def
%!PS-Adobe-3.0 Resource-Font
%%Title: DejaVu Sans
%%Copyright: Copyright (c) 2003 by Bitstream, Inc. All Rights Reserved. Copyright (c) 2006 by Tavmjong Bah. All Rights Reserved. DejaVu changes are in public domain 
%%Creator: Converted from TrueType to type 3 by PPR
25 dict begin
/_d{bind def}bind def
/_m{moveto}_d
/_l{lineto}_d
/_cl{closepath eofill}_d
/_c{curveto}_d
/_sc{7 -1 roll{setcachedevice}{pop pop pop pop pop pop}ifelse}_d
/_e{exec}_d
/FontName /DejaVuSans def
/PaintType 0 def
/FontMatrix[.001 0 0 .001 0 0]def
/FontBBox[-1021 -463 1793 1232]def
/FontType 3 def
/Encoding [ /space /parenleft /parenright /period /zero /one /two /three /five /six /seven /eight /equal /N /a /e /m /n /s /v /minus ] def
/FontInfo 10 dict dup begin
/FamilyName (DejaVu Sans) def
/FullName (DejaVu Sans) def
/Notice (Copyright (c) 2003 by Bitstream, Inc. All Rights Reserved. Copyright (c) 2006 by Tavmjong Bah. All Rights Reserved. DejaVu changes are in public domain ) def
/Weight (Book) def
/Version (Version 2.35) def
/ItalicAngle 0.0 def
/isFixedPitch false def
/UnderlinePosition -130 def
/UnderlineThickness 90 def
end readonly def
/CharStrings 22 dict dup begin
/.notdef 0 def
/space{318 0 0 0 0 0 _sc
}_d
/parenleft{390 0 86 -131 310 759 _sc
310 759 _m
266 683 234 609 213 536 _c
191 463 181 389 181 314 _c
181 238 191 164 213 91 _c
234 17 266 -56 310 -131 _c
232 -131 _l
183 -54 146 20 122 94 _c
98 168 86 241 86 314 _c
86 386 98 459 122 533 _c
146 607 182 682 232 759 _c
310 759 _l
_cl}_d
/parenright{390 0 80 -131 304 759 _sc
80 759 _m
158 759 _l
206 682 243 607 267 533 _c
291 459 304 386 304 314 _c
304 241 291 168 267 94 _c
243 20 206 -54 158 -131 _c
80 -131 _l
123 -56 155 17 177 91 _c
198 164 209 238 209 314 _c
209 389 198 463 177 536 _c
155 609 123 683 80 759 _c
_cl}_d
/period{318 0 107 0 210 124 _sc
107 124 _m
210 124 _l
210 0 _l
107 0 _l
107 124 _l
_cl}_d
/zero{636 0 66 -13 570 742 _sc
318 664 _m
267 664 229 639 203 589 _c
177 539 165 464 165 364 _c
165 264 177 189 203 139 _c
229 89 267 64 318 64 _c
369 64 407 89 433 139 _c
458 189 471 264 471 364 _c
471 464 458 539 433 589 _c
407 639 369 664 318 664 _c
318 742 _m
399 742 461 709 505 645 _c
548 580 570 486 570 364 _c
570 241 548 147 505 83 _c
461 19 399 -13 318 -13 _c
236 -13 173 19 130 83 _c
87 147 66 241 66 364 _c
66 486 87 580 130 645 _c
173 709 236 742 318 742 _c
_cl}_d
/one{636 0 110 0 544 729 _sc
124 83 _m
285 83 _l
285 639 _l
110 604 _l
110 694 _l
284 729 _l
383 729 _l
383 83 _l
544 83 _l
544 0 _l
124 0 _l
124 83 _l
_cl}_d
/two{{636 0 73 0 536 742 _sc
192 83 _m
536 83 _l
536 0 _l
73 0 _l
73 83 _l
110 121 161 173 226 239 _c
290 304 331 346 348 365 _c
380 400 402 430 414 455 _c
426 479 433 504 433 528 _c
433 566 419 598 392 622 _c
365 646 330 659 286 659 _c
255 659 222 653 188 643 _c
154 632 117 616 78 594 _c
78 694 _l
118 710 155 722 189 730 _c
223 738 255 742 284 742 _c
}_e{359 742 419 723 464 685 _c
509 647 532 597 532 534 _c
532 504 526 475 515 449 _c
504 422 484 390 454 354 _c
446 344 420 317 376 272 _c
332 227 271 164 192 83 _c
_cl}_e}_d
/three{{636 0 76 -13 556 742 _sc
406 393 _m
453 383 490 362 516 330 _c
542 298 556 258 556 212 _c
556 140 531 84 482 45 _c
432 6 362 -13 271 -13 _c
240 -13 208 -10 176 -4 _c
144 1 110 10 76 22 _c
76 117 _l
103 101 133 89 166 81 _c
198 73 232 69 268 69 _c
330 69 377 81 409 105 _c
441 129 458 165 458 212 _c
458 254 443 288 413 312 _c
383 336 341 349 287 349 _c
}_e{202 349 _l
202 430 _l
291 430 _l
339 430 376 439 402 459 _c
428 478 441 506 441 543 _c
441 580 427 609 401 629 _c
374 649 336 659 287 659 _c
260 659 231 656 200 650 _c
169 644 135 635 98 623 _c
98 711 _l
135 721 170 729 203 734 _c
235 739 266 742 296 742 _c
370 742 429 725 473 691 _c
517 657 539 611 539 553 _c
539 513 527 479 504 451 _c
481 423 448 403 406 393 _c
_cl}_e}_d
/five{{636 0 77 -13 549 729 _sc
108 729 _m
495 729 _l
495 646 _l
198 646 _l
198 467 _l
212 472 227 476 241 478 _c
255 480 270 482 284 482 _c
365 482 429 459 477 415 _c
525 370 549 310 549 234 _c
549 155 524 94 475 51 _c
426 8 357 -13 269 -13 _c
238 -13 207 -10 175 -6 _c
143 -1 111 6 77 17 _c
77 116 _l
106 100 136 88 168 80 _c
199 72 232 69 267 69 _c
}_e{323 69 368 83 401 113 _c
433 143 450 183 450 234 _c
450 284 433 324 401 354 _c
368 384 323 399 267 399 _c
241 399 214 396 188 390 _c
162 384 135 375 108 363 _c
108 729 _l
_cl}_e}_d
/six{{636 0 70 -13 573 742 _sc
330 404 _m
286 404 251 388 225 358 _c
199 328 186 286 186 234 _c
186 181 199 139 225 109 _c
251 79 286 64 330 64 _c
374 64 409 79 435 109 _c
461 139 474 181 474 234 _c
474 286 461 328 435 358 _c
409 388 374 404 330 404 _c
526 713 _m
526 623 _l
501 635 476 644 451 650 _c
425 656 400 659 376 659 _c
310 659 260 637 226 593 _c
}_e{192 549 172 482 168 394 _c
187 422 211 444 240 459 _c
269 474 301 482 336 482 _c
409 482 467 459 509 415 _c
551 371 573 310 573 234 _c
573 159 550 99 506 54 _c
462 9 403 -13 330 -13 _c
246 -13 181 19 137 83 _c
92 147 70 241 70 364 _c
70 479 97 571 152 639 _c
206 707 280 742 372 742 _c
396 742 421 739 447 735 _c
472 730 498 723 526 713 _c
_cl}_e}_d
/seven{636 0 82 0 551 729 _sc
82 729 _m
551 729 _l
551 687 _l
286 0 _l
183 0 _l
432 646 _l
82 646 _l
82 729 _l
_cl}_d
/eight{{636 0 68 -13 568 742 _sc
318 346 _m
271 346 234 333 207 308 _c
180 283 167 249 167 205 _c
167 161 180 126 207 101 _c
234 76 271 64 318 64 _c
364 64 401 76 428 102 _c
455 127 469 161 469 205 _c
469 249 455 283 429 308 _c
402 333 365 346 318 346 _c
219 388 _m
177 398 144 418 120 447 _c
96 476 85 511 85 553 _c
85 611 105 657 147 691 _c
188 725 245 742 318 742 _c
}_e{390 742 447 725 489 691 _c
530 657 551 611 551 553 _c
551 511 539 476 515 447 _c
491 418 459 398 417 388 _c
464 377 501 355 528 323 _c
554 291 568 251 568 205 _c
568 134 546 80 503 43 _c
459 5 398 -13 318 -13 _c
237 -13 175 5 132 43 _c
89 80 68 134 68 205 _c
68 251 81 291 108 323 _c
134 355 171 377 219 388 _c
183 544 _m
183 506 194 476 218 455 _c
}_e{242 434 275 424 318 424 _c
360 424 393 434 417 455 _c
441 476 453 506 453 544 _c
453 582 441 611 417 632 _c
393 653 360 664 318 664 _c
275 664 242 653 218 632 _c
194 611 183 582 183 544 _c
_cl}_e}_d
/equal{838 0 106 172 732 454 _sc
106 454 _m
732 454 _l
732 372 _l
106 372 _l
106 454 _l
106 255 _m
732 255 _l
732 172 _l
106 172 _l
106 255 _l
_cl}_d
/N{748 0 98 0 650 729 _sc
98 729 _m
231 729 _l
554 119 _l
554 729 _l
650 729 _l
650 0 _l
517 0 _l
194 610 _l
194 0 _l
98 0 _l
98 729 _l
_cl}_d
/a{{613 0 60 -13 522 560 _sc
343 275 _m
270 275 220 266 192 250 _c
164 233 150 205 150 165 _c
150 133 160 107 181 89 _c
202 70 231 61 267 61 _c
317 61 357 78 387 114 _c
417 149 432 196 432 255 _c
432 275 _l
343 275 _l
522 312 _m
522 0 _l
432 0 _l
432 83 _l
411 49 385 25 355 10 _c
325 -5 287 -13 243 -13 _c
187 -13 142 2 109 33 _c
76 64 60 106 60 159 _c
}_e{60 220 80 266 122 298 _c
163 329 224 345 306 345 _c
432 345 _l
432 354 _l
432 395 418 427 391 450 _c
364 472 326 484 277 484 _c
245 484 215 480 185 472 _c
155 464 127 453 100 439 _c
100 522 _l
132 534 164 544 195 550 _c
226 556 256 560 286 560 _c
365 560 424 539 463 498 _c
502 457 522 395 522 312 _c
_cl}_e}_d
/e{{615 0 55 -13 562 560 _sc
562 296 _m
562 252 _l
149 252 _l
153 190 171 142 205 110 _c
238 78 284 62 344 62 _c
378 62 412 66 444 74 _c
476 82 509 95 541 113 _c
541 28 _l
509 14 476 3 442 -3 _c
408 -9 373 -13 339 -13 _c
251 -13 182 12 131 62 _c
80 112 55 181 55 268 _c
55 357 79 428 127 481 _c
175 533 241 560 323 560 _c
397 560 455 536 498 489 _c
}_e{540 441 562 377 562 296 _c
472 322 _m
471 371 457 410 431 440 _c
404 469 368 484 324 484 _c
274 484 234 469 204 441 _c
174 413 156 373 152 322 _c
472 322 _l
_cl}_e}_d
/m{{974 0 91 0 889 560 _sc
520 442 _m
542 482 569 511 600 531 _c
631 550 668 560 711 560 _c
767 560 811 540 842 500 _c
873 460 889 403 889 330 _c
889 0 _l
799 0 _l
799 327 _l
799 379 789 418 771 444 _c
752 469 724 482 686 482 _c
639 482 602 466 575 435 _c
548 404 535 362 535 309 _c
535 0 _l
445 0 _l
445 327 _l
445 379 435 418 417 444 _c
398 469 369 482 331 482 _c
}_e{285 482 248 466 221 435 _c
194 404 181 362 181 309 _c
181 0 _l
91 0 _l
91 547 _l
181 547 _l
181 462 _l
201 495 226 520 255 536 _c
283 552 317 560 357 560 _c
397 560 430 550 458 530 _c
486 510 506 480 520 442 _c
_cl}_e}_d
/n{634 0 91 0 549 560 _sc
549 330 _m
549 0 _l
459 0 _l
459 327 _l
459 379 448 417 428 443 _c
408 469 378 482 338 482 _c
289 482 251 466 223 435 _c
195 404 181 362 181 309 _c
181 0 _l
91 0 _l
91 547 _l
181 547 _l
181 462 _l
202 494 227 519 257 535 _c
286 551 320 560 358 560 _c
420 560 468 540 500 501 _c
532 462 549 405 549 330 _c
_cl}_d
/s{{521 0 54 -13 472 560 _sc
443 531 _m
443 446 _l
417 458 391 468 364 475 _c
336 481 308 485 279 485 _c
234 485 200 478 178 464 _c
156 450 145 430 145 403 _c
145 382 153 366 169 354 _c
185 342 217 330 265 320 _c
296 313 _l
360 299 405 279 432 255 _c
458 230 472 195 472 151 _c
472 100 452 60 412 31 _c
372 1 316 -13 246 -13 _c
216 -13 186 -10 154 -5 _c
}_e{122 0 89 8 54 20 _c
54 113 _l
87 95 120 82 152 74 _c
184 65 216 61 248 61 _c
290 61 323 68 346 82 _c
368 96 380 117 380 144 _c
380 168 371 187 355 200 _c
339 213 303 226 247 238 _c
216 245 _l
160 257 119 275 95 299 _c
70 323 58 356 58 399 _c
58 450 76 490 112 518 _c
148 546 200 560 268 560 _c
301 560 332 557 362 552 _c
391 547 418 540 443 531 _c
}_e{_cl}_e}_d
/v{592 0 30 0 562 547 _sc
30 547 _m
125 547 _l
296 88 _l
467 547 _l
562 547 _l
357 0 _l
235 0 _l
30 547 _l
_cl}_d
/minus{838 0 106 272 732 355 _sc
106 355 _m
732 355 _l
732 272 _l
106 272 _l
106 355 _l
_cl}_d
end readonly def

/BuildGlyph
 {exch begin
 CharStrings exch
 2 copy known not{pop /.notdef}if
 true 3 1 roll get exec
 end}_d

/BuildChar {
 1 index /Encoding get exch get
 1 index /BuildGlyph get exec
}_d

FontName currentdict end definefont pop
end
%%EndProlog
mpldict begin
75.6 223.2 translate
460.8 345.6 0 0 clipbox
gsave
0 0 m
460.8 0 l
460.8 345.6 l
0 345.6 l
cl
1.000 setgray
fill
grestore
gsave
57.6 38.016 m
414.72 38.016 l
414.72 304.128 l
57.6 304.128 l
cl
1.000 setgray
fill
grestore
0.800 setlinewidth
1 setlinejoin
0 setlinecap
[] 0 setdash
0.000 setgray
gsave
/o {
gsave
newpath
translate
0.8 setlinewidth
1 setlinejoin
0 setlinecap
0 0 m
0 -3.5 l

gsave
0.000 setgray
fill
grestore
stroke
grestore
} bind def
72.1931 38.016 o
grestore
/DejaVuSans findfont
10.000 scalefont
setfont
gsave
69.013370 23.422250 translate
0.000000 rotate
0.000000 0.000000 m /zero glyphshow
grestore
gsave
/o {
gsave
newpath
translate
0.8 setlinewidth
1 setlinejoin
0 setlinecap
0 0 m
0 -3.5 l

gsave
0.000 setgray
fill
grestore
stroke
grestore
} bind def
113.185 38.016 o
grestore
gsave
103.645731 23.422250 translate
0.000000 rotate
0.000000 0.000000 m /two glyphshow
6.362305 0.000000 m /five glyphshow
12.724609 0.000000 m /zero glyphshow
grestore
gsave
/o {
gsave
newpath
translate
0.8 setlinewidth
1 setlinejoin
0 setlinecap
0 0 m
0 -3.5 l

gsave
0.000 setgray
fill
grestore
stroke
grestore
} bind def
154.177 38.016 o
grestore
gsave
144.637466 23.422250 translate
0.000000 rotate
0.000000 0.000000 m /five glyphshow
6.362305 0.000000 m /zero glyphshow
12.724609 0.000000 m /zero glyphshow
grestore
gsave
/o {
gsave
newpath
translate
0.8 setlinewidth
1 setlinejoin
0 setlinecap
0 0 m
0 -3.5 l

gsave
0.000 setgray
fill
grestore
stroke
grestore
} bind def
195.168 38.016 o
grestore
gsave
185.629202 23.422250 translate
0.000000 rotate
0.000000 0.000000 m /seven glyphshow
6.362305 0.000000 m /five glyphshow
12.724609 0.000000 m /zero glyphshow
grestore
gsave
/o {
gsave
newpath
translate
0.8 setlinewidth
1 setlinejoin
0 setlinecap
0 0 m
0 -3.5 l

gsave
0.000 setgray
fill
grestore
stroke
grestore
} bind def
236.16 38.016 o
grestore
gsave
223.441250 23.422250 translate
0.000000 rotate
0.000000 0.000000 m /one glyphshow
6.362305 0.000000 m /zero glyphshow
12.724609 0.000000 m /zero glyphshow
19.086914 0.000000 m /zero glyphshow
grestore
gsave
/o {
gsave
newpath
translate
0.8 setlinewidth
1 setlinejoin
0 setlinecap
0 0 m
0 -3.5 l

gsave
0.000 setgray
fill
grestore
stroke
grestore
} bind def
277.152 38.016 o
grestore
gsave
264.432986 23.422250 translate
0.000000 rotate
0.000000 0.000000 m /one glyphshow
6.362305 0.000000 m /two glyphshow
12.724609 0.000000 m /five glyphshow
19.086914 0.000000 m /zero glyphshow
grestore
gsave
/o {
gsave
newpath
translate
0.8 setlinewidth
1 setlinejoin
0 setlinecap
0 0 m
0 -3.5 l

gsave
0.000 setgray
fill
grestore
stroke
grestore
} bind def
318.143 38.016 o
grestore
gsave
305.424721 23.422250 translate
0.000000 rotate
0.000000 0.000000 m /one glyphshow
6.362305 0.000000 m /five glyphshow
12.724609 0.000000 m /zero glyphshow
19.086914 0.000000 m /zero glyphshow
grestore
gsave
/o {
gsave
newpath
translate
0.8 setlinewidth
1 setlinejoin
0 setlinecap
0 0 m
0 -3.5 l

gsave
0.000 setgray
fill
grestore
stroke
grestore
} bind def
359.135 38.016 o
grestore
gsave
346.416457 23.422250 translate
0.000000 rotate
0.000000 0.000000 m /one glyphshow
6.362305 0.000000 m /seven glyphshow
12.724609 0.000000 m /five glyphshow
19.086914 0.000000 m /zero glyphshow
grestore
gsave
/o {
gsave
newpath
translate
0.8 setlinewidth
1 setlinejoin
0 setlinecap
0 0 m
0 -3.5 l

gsave
0.000 setgray
fill
grestore
stroke
grestore
} bind def
400.127 38.016 o
grestore
gsave
387.408192 23.422250 translate
0.000000 rotate
0.000000 0.000000 m /two glyphshow
6.362305 0.000000 m /zero glyphshow
12.724609 0.000000 m /zero glyphshow
19.086914 0.000000 m /zero glyphshow
grestore
gsave
232.417812 9.750375 translate
0.000000 rotate
0.000000 0.000000 m /N glyphshow
grestore
gsave
/o {
gsave
newpath
translate
0.8 setlinewidth
1 setlinejoin
0 setlinecap
0 0 m
-3.5 0 l

gsave
0.000 setgray
fill
grestore
stroke
grestore
} bind def
57.6 79.646 o
grestore
gsave
35.865625 75.849104 translate
0.000000 rotate
0.000000 0.000000 m /minus glyphshow
8.378906 0.000000 m /five glyphshow
grestore
gsave
/o {
gsave
newpath
translate
0.8 setlinewidth
1 setlinejoin
0 setlinecap
0 0 m
-3.5 0 l

gsave
0.000 setgray
fill
grestore
stroke
grestore
} bind def
57.6 129.143 o
grestore
gsave
44.240625 125.345895 translate
0.000000 rotate
0.000000 0.000000 m /zero glyphshow
grestore
gsave
/o {
gsave
newpath
translate
0.8 setlinewidth
1 setlinejoin
0 setlinecap
0 0 m
-3.5 0 l

gsave
0.000 setgray
fill
grestore
stroke
grestore
} bind def
57.6 178.64 o
grestore
gsave
44.240625 174.842687 translate
0.000000 rotate
0.000000 0.000000 m /five glyphshow
grestore
gsave
/o {
gsave
newpath
translate
0.8 setlinewidth
1 setlinejoin
0 setlinecap
0 0 m
-3.5 0 l

gsave
0.000 setgray
fill
grestore
stroke
grestore
} bind def
57.6 228.136 o
grestore
gsave
37.881250 224.339479 translate
0.000000 rotate
0.000000 0.000000 m /one glyphshow
6.362305 0.000000 m /zero glyphshow
grestore
gsave
/o {
gsave
newpath
translate
0.8 setlinewidth
1 setlinejoin
0 setlinecap
0 0 m
-3.5 0 l

gsave
0.000 setgray
fill
grestore
stroke
grestore
} bind def
57.6 277.633 o
grestore
gsave
37.881250 273.836271 translate
0.000000 rotate
0.000000 0.000000 m /one glyphshow
6.362305 0.000000 m /five glyphshow
grestore
gsave
29.787500 167.900125 translate
90.000000 rotate
0.000000 0.000000 m /n glyphshow
grestore
1.500 setlinewidth
2 setlinecap
0.122 0.467 0.706 setrgbcolor
gsave
357.1 266.1 57.6 38.02 clipbox
73.832727 124.876513 m
75.472397 127.565431 l
77.112066 139.217624 l
78.751736 134.569464 l
80.391405 141.297182 l
83.670744 117.854836 l
85.310413 135.553557 l
86.950083 138.442205 l
88.589752 129.14277 l
90.229421 135.757794 l
91.869091 137.096331 l
93.50876 137.645045 l
95.14843 141.412733 l
96.788099 144.308993 l
98.427769 137.546541 l
100.067438 140.709404 l
101.707107 140.077878 l
103.346777 140.835757 l
104.986446 142.115043 l
106.626116 146.305265 l
108.265785 145.546911 l
109.905455 142.293695 l
111.545124 139.951327 l
113.184793 151.357842 l
116.464132 141.393819 l
118.103802 146.534136 l
119.743471 146.703166 l
121.38314 145.632582 l
123.02281 204.072915 l
124.662479 81.52042 l
126.302149 146.829548 l
127.941818 163.698269 l
129.581488 141.650727 l
131.221157 131.799279 l
132.860826 149.531868 l
134.500496 142.916944 l
136.140165 145.684827 l
137.779835 145.642873 l
139.419504 146.836973 l
141.059174 144.166141 l
142.698843 148.190473 l
144.338512 147.413931 l
145.978182 144.920558 l
147.617851 143.477877 l
149.257521 149.542946 l
150.89719 147.978024 l
152.53686 159.287511 l
154.176529 135.798741 l
155.816198 174.193609 l
157.455868 118.309174 l
159.095537 142.605116 l
160.735207 149.552771 l
162.374876 148.930769 l
164.014545 151.835866 l
165.654215 138.59797 l
167.293884 161.451686 l
168.933554 138.164301 l
170.573223 147.716692 l
172.212893 148.495089 l
173.852562 140.480678 l
175.492231 203.793034 l
177.131901 119.828848 l
178.77157 115.586066 l
180.41124 152.277268 l
182.050909 144.274691 l
183.690579 165.081041 l
185.330248 146.625565 l
186.969917 142.862634 l
188.609587 140.931467 l
191.888926 181.827285 l
193.528595 121.875903 l
195.168264 179.960067 l
196.807934 108.028592 l
198.447603 139.845568 l
200.087273 145.49045 l
201.726942 164.033352 l
203.366612 130.290978 l
205.006281 187.597215 l
206.64595 178.547287 l
208.28562 144.877366 l
209.925289 134.299734 l
211.564959 180.143898 l
213.204628 131.234414 l
214.844298 155.053661 l
216.483967 171.409769 l
218.123636 75.941132 l
219.763306 165.976632 l
221.402975 168.302883 l
223.042645 142.760037 l
224.682314 136.162564 l
226.321983 194.869314 l
227.961653 183.348601 l
229.601322 97.940557 l
231.240992 152.055216 l
232.880661 164.696826 l
234.520331 127.032532 l
236.16 182.381727 l
237.799669 154.341865 l
239.439339 186.729889 l
241.079008 111.37671 l
242.718678 179.610645 l
244.358347 151.590891 l
245.998017 156.9831 l
247.637686 179.531753 l
249.277355 147.058934 l
250.917025 231.227842 l
252.556694 88.641024 l
254.196364 146.715269 l
255.836033 188.471207 l
257.475702 292.032 l
259.115372 50.112 l
260.755041 194.088094 l
262.394711 106.777072 l
264.03438 180.620396 l
265.67405 140.76864 l
267.313719 206.016265 l
268.953388 148.307843 l
270.593058 155.509527 l
272.232727 184.075048 l
273.872397 140.058376 l
275.512066 165.430555 l
277.151736 176.079017 l
278.791405 174.155404 l
280.431074 183.098803 l
282.070744 152.975873 l
283.710413 156.977034 l
285.350083 172.947075 l
286.989752 176.483504 l
288.629421 140.103245 l
290.269091 168.896778 l
291.90876 173.300418 l
293.54843 148.497563 l
295.188099 170.167688 l
296.827769 186.636918 l
298.467438 144.741015 l
300.107107 166.008158 l
303.386446 149.333427 l
305.026116 159.120453 l
306.665785 157.318702 l
308.305455 165.791122 l
309.945124 156.52486 l
311.584793 157.180741 l
313.224463 169.684081 l
314.864132 141.715206 l
316.503802 159.770018 l
318.143471 153.354705 l
319.78314 160.691782 l
321.42281 161.375171 l
323.062479 148.434405 l
324.702149 155.819464 l
326.341818 153.639222 l
327.981488 155.815424 l
329.621157 147.583536 l
331.260826 155.714465 l
332.900496 151.18301 l
334.540165 155.320456 l
336.179835 151.9474 l
337.819504 152.886854 l
339.459174 147.319311 l
341.098843 153.261069 l
342.738512 155.634855 l
344.378182 153.569537 l
346.017851 144.790866 l
347.657521 149.211224 l
349.29719 148.631157 l
352.576529 154.713703 l
354.216198 148.425262 l
355.855868 149.780694 l
357.495537 147.353519 l
359.135207 149.570559 l
360.774876 149.926568 l
362.414545 146.889955 l
364.054215 150.288026 l
365.693884 143.029269 l
367.333554 155.9134 l
368.973223 144.402865 l
370.612893 149.35004 l
372.252562 145.381827 l
373.892231 153.491243 l
375.531901 147.796974 l
377.17157 150.398822 l
378.81124 142.521565 l
380.450909 147.315516 l
382.090579 155.51046 l
383.730248 141.710636 l
385.369917 146.096222 l
388.649256 150.530142 l
390.288926 141.579664 l
391.928595 151.549817 l
393.568264 144.584712 l
395.207934 151.348482 l
396.847603 145.480089 l
398.487273 156.904626 l
398.487273 156.904626 l
stroke
grestore
0 setlinecap
[5.55 2.4] 0 setdash
1.000 0.498 0.055 setrgbcolor
gsave
357.1 266.1 57.6 38.02 clipbox
73.832727 151.037912 m
398.487273 151.037912 l
398.487273 151.037912 l
stroke
grestore
0.800 setlinewidth
0 setlinejoin
2 setlinecap
[] 0 setdash
0.000 setgray
gsave
57.6 38.016 m
57.6 304.128 l
stroke
grestore
gsave
414.72 38.016 m
414.72 304.128 l
stroke
grestore
gsave
57.6 38.016 m
414.72 38.016 l
stroke
grestore
gsave
57.6 304.128 m
414.72 304.128 l
stroke
grestore
/DejaVuSans findfont
12.000 scalefont
setfont
gsave
217.370937 310.128000 translate
0.000000 rotate
0.000000 0.000000 m /n glyphshow
7.605469 0.000000 m /space glyphshow
11.419922 0.000000 m /v glyphshow
18.521484 0.000000 m /s glyphshow
24.773438 0.000000 m /space glyphshow
28.587891 0.000000 m /N glyphshow
grestore
1.000 setlinewidth
0 setlinecap
0.300 setgray
gsave
65.431 271.009 m
215.383875 271.009 l
216.494542 271.009 217.049875 271.564333 217.049875 272.675 c
217.049875 296.297 l
217.049875 297.407667 216.494542 297.963 215.383875 297.963 c
65.431 297.963 l
64.320333 297.963 63.765 297.407667 63.765 296.297 c
63.765 272.675 l
63.765 271.564333 64.320333 271.009 65.431 271.009 c
cl
gsave
fill
grestore
stroke
grestore
0.800 setgray
gsave
63.431 273.009 m
213.383875 273.009 l
214.494542 273.009 215.049875 273.564333 215.049875 274.675 c
215.049875 298.297 l
215.049875 299.407667 214.494542 299.963 213.383875 299.963 c
63.431 299.963 l
62.320333 299.963 61.765 299.407667 61.765 298.297 c
61.765 274.675 l
61.765 273.564333 62.320333 273.009 63.431 273.009 c
cl
gsave
1.000 setgray
fill
grestore
stroke
grestore
1.500 setlinewidth
1 setlinejoin
2 setlinecap
[] 0 setdash
0.122 0.467 0.706 setrgbcolor
gsave
65.097 293.218375 m
81.757 293.218375 l
stroke
grestore
0.000 setgray
/DejaVuSans findfont
8.330 scalefont
setfont
gsave
88.421000 290.302875 translate
0.000000 rotate
0.000000 0.000000 m /n glyphshow
5.278275 0.000000 m /parenleft glyphshow
8.527374 0.000000 m /N glyphshow
14.757202 0.000000 m /parenright glyphshow
grestore
0 setlinecap
[5.55 2.4] 0 setdash
1.000 0.498 0.055 setrgbcolor
gsave
65.097 280.990875 m
81.757 280.990875 l
stroke
grestore
0.000 setgray
gsave
88.421000 278.075375 translate
0.000000 rotate
0.000000 0.000000 m /m glyphshow
8.112595 0.000000 m /e glyphshow
13.236343 0.000000 m /a glyphshow
18.339752 0.000000 m /n glyphshow
23.618027 0.000000 m /equal glyphshow
30.596085 0.000000 m /two glyphshow
35.894684 0.000000 m /period glyphshow
38.541946 0.000000 m /two glyphshow
43.840546 0.000000 m /one glyphshow
49.139145 0.000000 m /one glyphshow
54.437744 0.000000 m /seven glyphshow
59.736343 0.000000 m /seven glyphshow
65.034943 0.000000 m /three glyphshow
70.333542 0.000000 m /eight glyphshow
75.632141 0.000000 m /three glyphshow
80.930740 0.000000 m /five glyphshow
86.229340 0.000000 m /five glyphshow
91.527939 0.000000 m /five glyphshow
96.826538 0.000000 m /one glyphshow
102.125137 0.000000 m /seven glyphshow
107.423737 0.000000 m /zero glyphshow
112.722336 0.000000 m /five glyphshow
118.020935 0.000000 m /six glyphshow
grestore

end
showpage
